…
```r
# mutate w. group_by. 
data %>%
  group_by(SUBJ) %>%
  mutate(mean_CHI_MLU = mean(CHI_MLU)) %>%
  select(SUBJ, VISIT, CHI_MLU, mean_CHI_MLU) %>%
  slice_head(n = 15)
```

```
## # A tibble: 372 x 4
## # Groups:   SUBJ [66]
##     SUBJ VISIT CHI_MLU mean_CHI_MLU
##    <dbl> <dbl>   <dbl>        <dbl>
##  1     1     1   NA           NA   
##  2     2     1    1.25         2.03
##  3     2     2    1.01         2.03
##  4     2     3    1.56         2.03
##  5     2     4    2.25         2.03
##  6     2     5    3.24         2.03
##  7     2     6    2.87         2.03
##  8     3     1    2.28        NA   
##  9     3     2    3.45        NA   
## 10     3     3    3.12        NA   
## # … with 362 more rows
```
…
